<svg xmlns="http://www.w3.org/2000/svg" xmlns:xlink="http://www.w3.org/1999/xlink" height="28.799999999999997" width="28.42458100558656">
  <g opacity="1">
    <g opacity="1">
      <path fill="rgb(104,136,155)" fill-opacity="0.38" opacity="1" fill-rule="evenodd" d="M0 14.399999999999997C0 6.447099215999999 6.363058816536312 0 14.212290502793294 0C22.06152218905028 0 28.42458100558659 6.447099215999999 28.42458100558659 14.399999999999997C28.42458100558659 22.352900783999996 22.06152218905028 28.799999999999994 14.212290502793294 28.799999999999994C6.363058816536312 28.799999999999994 0 22.352900783999996 0 14.399999999999997Z"/>
    </g>
    <g opacity="1">
      <path fill="rgb(255,255,255)" fill-opacity="1" opacity="1" fill-rule="evenodd" d="M15.693658339218096 22.86688603199982L15.693658339218096 15.032525759999817L17.82809371530748 15.032525759999817L18.110952500558877 12.33276182399982L15.693658339218096 12.33276182399982L15.697284699888485 10.981503983999819C15.697284699888485 10.277363999999817 15.763315333184575 9.900069695999818 16.76148040491642 9.900069695999818L18.095842514413626 9.900069695999818L18.095842514413626 7.199999999999818L15.96110493765385 7.199999999999818C13.39694177162033 7.199999999999818 12.494422809385695 8.509675967999819 12.494422809385695 10.712139119999819L12.494422809385695 12.333067583999817L10.89608938547508 12.333067583999817L10.89608938547508 15.032831519999819L12.494422809385695 15.032831519999819L12.494422809385695 22.86688603199982L15.693658339218096 22.86688603199982Z"/>
    </g>
  </g>
</svg>