<svg xmlns="http://www.w3.org/2000/svg" width="48.445" height="33.449" viewBox="0 0 48.445 33.449">
  <g id="wftvGb" transform="translate(-1586.18 -180.436)">
    <g id="Group_226" data-name="Group 226" transform="translate(1586.18 180.436)">
      <path id="Path_69" data-name="Path 69" d="M1589.683,208.7v3.428a1.751,1.751,0,0,1-1.751,1.751h0a1.751,1.751,0,0,1-1.751-1.751c0-5.275,0-21.178,0-29.76a1.753,1.753,0,0,1,2.415-1.789,1.792,1.792,0,0,1,1.095,1.829q-.009,4.916,0,9.832c0,1.945,0,3.89,0,5.9h42.846a1.822,1.822,0,0,1,2.091,2.088c0,3.224,0,9.012,0,11.906a1.744,1.744,0,0,1-1.744,1.744h0a1.744,1.744,0,0,1-1.744-1.744V208.7Z" transform="translate(-1586.18 -180.436)" fill="#211b24"/>
      <path id="Path_70" data-name="Path 70" d="M1786.464,273.888h-28.558c-.006-.145-.017-.267-.017-.39q0-3.372,0-6.745a1.166,1.166,0,0,1,1.284-1.3c6.316,0,12.632-.015,18.948.011a10.9,10.9,0,0,1,5.952,1.664,4.483,4.483,0,0,1,2.366,3.271A34.451,34.451,0,0,1,1786.464,273.888Z" transform="translate(-1741.548 -257.356)" fill="#211b24"/>
      <path id="Path_71" data-name="Path 71" d="M1660.843,266.614a4.375,4.375,0,1,1-4.387-4.41A4.352,4.352,0,0,1,1660.843,266.614Z" transform="translate(-1645.822 -254.423)" fill="#211b24"/>
    </g>
  </g>
</svg>
