<svg xmlns="http://www.w3.org/2000/svg" width="169" height="166" viewBox="0 0 169 166">
  <g id="Group_187" data-name="Group 187" transform="translate(-823 -2802.555)">
    <ellipse id="Ellipse_13" data-name="Ellipse 13" cx="84.5" cy="83" rx="84.5" ry="83" transform="translate(823 2802.555)" fill="#e91afc"/>
    <g id="ELm9ji" transform="translate(855.712 2837.841)">
      <g id="Group_186" data-name="Group 186" transform="translate(0 0)">
        <path id="Path_50" data-name="Path 50" d="M0,23.359c1.4-6.8,5.538-11.953,10.2-16.778C11.93,4.784,13.678,3,15.482,1.27,17.195-.37,18.943-.452,20.632,1.2q7.29,7.136,14.43,14.422c1.73,1.766,1.544,3.484-.4,5.447-4.3,4.337-8.57,8.7-12.98,12.927-1.509,1.446-1.415,2.519-.269,4.078a160.072,160.072,0,0,0,34.306,34.3c1.606,1.182,2.694,1.152,4.093-.293,4.152-4.286,8.411-8.468,12.642-12.678,2.472-2.46,4-2.445,6.508.05q6.563,6.54,13.1,13.1c2.3,2.306,2.319,3.9.036,6.211-2.342,2.367-4.7,4.722-7.136,6.993-4.159,3.881-8.82,6.9-14.515,8.016H66.7c-7.765-1.7-14.347-5.783-20.632-10.4A171.092,171.092,0,0,1,16.2,55.077c-7-8.357-13.648-17-16.2-27.968Z" fill="#fff"/>
      </g>
    </g>
  </g>
</svg>
