<svg xmlns="http://www.w3.org/2000/svg" width="52.021" height="30.011" viewBox="0 0 52.021 30.011">
  <path id="Path_8" data-name="Path 8" d="M0,0,20.354,20.354l5.937-5.937L40.708,0" transform="translate(46.365 24.354) rotate(180)" fill="none" stroke="#fff" stroke-linecap="round" stroke-linejoin="round" stroke-width="8"/>
</svg>
