<svg xmlns="http://www.w3.org/2000/svg" width="57.055" height="94.111" viewBox="0 0 57.055 94.111">
  <path id="Path_1" data-name="Path 1" d="M0,0,32.913,32.913l9.6-9.6L65.826,0" transform="translate(14.142 79.969) rotate(-90)" fill="none" stroke="#d63df4" stroke-linecap="round" stroke-linejoin="round" stroke-width="20"/>
</svg>
