<svg xmlns="http://www.w3.org/2000/svg" width="89.971" height="146.16" viewBox="0 0 89.971 146.16">
  <g id="Group_12" data-name="Group 12" transform="translate(-941.044 -985.022)">
    <path id="Path_1" data-name="Path 1" d="M-47.628-265.493l36.5,36.5L-.482-239.639l25.854-25.854" transform="translate(997.157 1354.175)" fill="none" stroke="#d63df4" stroke-linecap="round" stroke-linejoin="round" stroke-width="12"/>
    <path id="Path_2" data-name="Path 2" d="M-47.628-265.493l36.5,36.5,36.5-36.5" transform="translate(997.157 1306.588)" fill="none" stroke="#d63df4" stroke-linecap="round" stroke-linejoin="round" stroke-width="12"/>
    <path id="Path_3" data-name="Path 3" d="M-47.628-265.493l36.5,36.5,36.5-36.5" transform="translate(997.157 1259)" fill="none" stroke="#d63df4" stroke-linecap="round" stroke-linejoin="round" stroke-width="12"/>
  </g>
</svg>
