<svg xmlns="http://www.w3.org/2000/svg" width="40.8" height="25.599" viewBox="0 0 40.8 25.599">
  <g id="Group_62" data-name="Group 62" transform="translate(-990.679 972.3) rotate(-90)">
    <path id="Path_1" data-name="Path 1" d="M-47.628-265.493l9.971,9.971,2.908-2.908,7.063-7.063" transform="translate(997.157 1285)" fill="none" stroke="#461892" stroke-linecap="round" stroke-linejoin="round" stroke-width="4"/>
    <path id="Path_2" data-name="Path 2" d="M-47.628-265.493l9.971,9.971,9.971-9.971" transform="translate(997.157 1272)" fill="none" stroke="#461892" stroke-linecap="round" stroke-linejoin="round" stroke-width="4"/>
    <path id="Path_3" data-name="Path 3" d="M-47.628-265.493l9.971,9.971,9.971-9.971" transform="translate(997.157 1259)" fill="none" stroke="#461892" stroke-linecap="round" stroke-linejoin="round" stroke-width="4"/>
  </g>
</svg>
