<?xml version="1.0" standalone="no"?>
<!DOCTYPE svg PUBLIC "-//W3C//DTD SVG 20010904//EN"
 "http://www.w3.org/TR/2001/REC-SVG-20010904/DTD/svg10.dtd">
<svg version="1.0" xmlns="http://www.w3.org/2000/svg"
 width="155.000000pt" height="252.000000pt" viewBox="0 0 155.000000 252.000000"
 preserveAspectRatio="xMidYMid meet">
<metadata>
Created by potrace 1.16, written by Peter Selinger 2001-2019
</metadata>
<g transform="translate(0.000000,252.000000) scale(0.100000,-0.100000)"
fill="#000000" stroke="none">
<path d="M451 2249 c-423 -416 -411 -403 -411 -456 0 -84 82 -129 158 -89 15
8 151 139 302 290 l275 276 290 -290 c287 -286 291 -290 332 -290 30 0 50 7
72 26 27 23 31 32 31 77 l0 52 -327 326 c-181 179 -338 331 -350 337 -12 7
-38 12 -59 12 -35 0 -52 -15 -313 -271z"/>
<path d="M383 1357 l-343 -342 0 -43 c0 -82 82 -128 158 -88 15 8 151 139 302
290 l275 276 290 -290 c287 -286 291 -290 332 -290 63 0 103 38 103 97 l0 44
-326 332 c-179 183 -336 337 -347 344 -12 7 -40 12 -62 13 -39 0 -46 -6 -382
-343z"/>
<path d="M383 537 l-343 -342 0 -43 c0 -80 81 -127 153 -91 12 6 147 135 299
287 l278 277 132 -130 c489 -480 450 -445 495 -445 30 0 50 7 72 26 26 22 31
33 31 71 l0 44 -326 332 c-179 183 -336 337 -348 344 -11 7 -39 12 -61 13 -39
0 -46 -6 -382 -343z"/>
</g>
</svg>
