<svg xmlns="http://www.w3.org/2000/svg" xmlns:xlink="http://www.w3.org/1999/xlink" height="17.0595703125" width="20.16424560546875">
  <g opacity="0.65">
    <g opacity="1">
      <path fill="rgb(0,0,0)" fill-opacity="1" opacity="1" fill-rule="evenodd" d="M0.2240447998046875 0L19.940216064453125 0C20.07464599609375 0 20.16424560546875 0.0859375 20.16424560546875 0.193115234375L20.16424560546875 16.844970703125C20.16424560546875 16.973876953125 20.052215576171875 17.0595703125 19.940216064453125 17.0595703125L0.2240447998046875 17.0595703125C0.0896148681640625 17.0595703125 0 16.952392578125 0 16.844970703125L0 0.214599609375C0 0.0859375 0.112030029296875 0 0.2240447998046875 0ZM10.30615234375 8.304443359375L19.760955810546875 8.304443359375L19.760955810546875 0.38623046875L10.2613525390625 0.38623046875C10.28375244140625 0.40771484375 10.30615234375 0.47216796875 10.30615234375 0.514892578125L10.30615234375 2.596435546875L14.092559814453125 2.596435546875C14.22698974609375 2.596435546875 14.316619873046875 2.703857421875 14.316619873046875 2.81103515625C14.316619873046875 3.884033203125 13.98052978515625 4.720947265625 13.308380126953125 5.32177734375C12.3001708984375 6.20166015625 10.888671875 6.308837890625 10.30615234375 6.308837890625L10.30615234375 8.304443359375ZM10.28375244140625 11.287353515625L10.28375244140625 11.330322265625C10.306182861328125 11.330322265625 10.306182861328125 11.3515625 10.306182861328125 11.373046875L10.306182861328125 16.630615234375L14.40625 16.630615234375L14.40625 12.2529296875C14.40625 12.124267578125 14.51824951171875 12.038330078125 14.630279541015625 12.038330078125L19.8057861328125 12.038330078125L19.8057861328125 8.733642578125L10.373382568359375 8.733642578125L10.373382568359375 9.78515625C10.373382568359375 9.913818359375 10.28375244140625 9.999755859375 10.14935302734375 9.999755859375C10.014923095703125 9.999755859375 9.92529296875 9.892578125 9.92529296875 9.78515625L9.92529296875 6.22314453125C9.90289306640625 6.18017578125 9.90289306640625 6.15869140625 9.90289306640625 6.11572265625C9.90289306640625 6.008544921875 10.014923095703125 5.922607421875 10.126922607421875 5.922607421875C10.126922607421875 5.922607421875 11.94171142578125 6.02978515625 13.03955078125 5.042724609375C13.5772705078125 4.57080078125 13.8685302734375 3.884033203125 13.913330078125 3.047119140625L10.126922607421875 3.047119140625C9.99249267578125 3.047119140625 9.90289306640625 2.93994140625 9.90289306640625 2.83251953125L9.90289306640625 0.536376953125C9.90289306640625 0.49365234375 9.90289306640625 0.45068359375 9.94769287109375 0.40771484375L7.37115478515625 0.40771484375L7.37115478515625 4.0126953125C7.37115478515625 4.1416015625 7.259124755859375 4.227294921875 7.1470947265625 4.227294921875L0.425689697265625 4.227294921875L0.425689697265625 7.74658203125L4.996246337890625 7.74658203125C5.13067626953125 7.74658203125 5.220306396484375 7.83251953125 5.220306396484375 7.961181640625C5.220306396484375 8.08984375 5.1082763671875 8.17578125 4.996246337890625 8.17578125L3.96563720703125 8.17578125L3.96563720703125 11.07275390625L4.279296875 11.07275390625C4.3240966796875 11.07275390625 4.368927001953125 11.09423828125 4.413726806640625 11.11572265625C4.50335693359375 11.136962890625 4.570556640625 11.222900390625 4.570556640625 11.330322265625L4.570220947265625 11.33740234375C4.56341552734375 11.463134765625 4.46923828125 13.209228515625 5.511566162109375 14.27001953125C6.00445556640625 14.78515625 6.699005126953125 15.06396484375 7.550384521484375 15.10693359375L7.550384521484375 11.3515625C7.550384521484375 11.287353515625 7.59521484375 11.222900390625 7.66241455078125 11.179931640625C7.684814453125 11.11572265625 7.752044677734375 11.07275390625 7.841644287109375 11.07275390625L10.059722900390625 11.07275390625C10.19415283203125 11.07275390625 10.28375244140625 11.179931640625 10.28375244140625 11.287353515625ZM6.923065185546875 0.40771484375L6.923065185546875 1.65234375C6.900665283203125 1.65234375 6.87823486328125 1.630859375 6.8558349609375 1.630859375L4.50335693359375 1.630859375C4.391326904296875 1.630859375 4.279296875 1.716796875 4.279296875 1.845458984375C4.279296875 1.95263671875 4.368927001953125 2.06005859375 4.50335693359375 2.06005859375L6.8558349609375 2.06005859375C6.87823486328125 2.06005859375 6.900665283203125 2.06005859375 6.923065185546875 2.03857421875L6.923065185546875 2.617919921875C6.900665283203125 2.617919921875 6.87823486328125 2.596435546875 6.8558349609375 2.596435546875L4.50335693359375 2.596435546875C4.391326904296875 2.596435546875 4.279296875 2.682373046875 4.279296875 2.81103515625C4.279296875 2.91845703125 4.368927001953125 3.025634765625 4.50335693359375 3.025634765625L6.8558349609375 3.025634765625C6.87823486328125 3.025634765625 6.900665283203125 3.025634765625 6.923065185546875 3.004150390625L6.923065185546875 3.798095703125L0.425689697265625 3.798095703125L0.425689697265625 0.40771484375L6.923065185546875 0.40771484375ZM3.517547607421875 11.07275390625L0.425689697265625 11.07275390625L0.425689697265625 8.17578125L3.517547607421875 8.17578125L3.517547607421875 11.07275390625ZM4.122467041015625 11.48046875L0.425689697265625 11.48046875L0.425689697265625 16.630615234375L9.85809326171875 16.630615234375L9.85809326171875 11.48046875L7.99847412109375 11.48046875L7.99847412109375 15.300048828125C7.99847412109375 15.428955078125 7.886474609375 15.5146484375 7.774444580078125 15.5146484375C6.699005126953125 15.5146484375 5.825225830078125 15.19287109375 5.197906494140625 14.549072265625C4.189697265625 13.51904296875 4.122467041015625 11.995361328125 4.122467041015625 11.48046875ZM15.10076904296875 12.446044921875L19.6041259765625 12.446044921875L17.3636474609375 14.27001953125L15.10076904296875 12.446044921875ZM17.00518798828125 14.548828125L14.831939697265625 12.789306640625L14.831939697265625 16.30859375L17.00518798828125 14.548828125ZM17.677337646484375 14.549072265625L19.73858642578125 12.875244140625L19.73858642578125 16.244140625L17.677337646484375 14.549072265625ZM19.559326171875 16.63037109375L17.341278076171875 14.827880859375L15.123199462890625 16.63037109375L19.559326171875 16.63037109375Z"/>
    </g>
    <g opacity="1">
      <path fill="rgb(0,0,0)" fill-opacity="1" opacity="1" fill-rule="evenodd" d="M2.957427978515625 3.17578125L2.083648681640625 3.17578125C1.657958984375 3.17578125 1.3218841552734375 2.83251953125 1.3218841552734375 2.4462890625L1.3218841552734375 1.93115234375C1.3218841552734375 1.5234375 1.657958984375 1.20166015625 2.083648681640625 1.20166015625L2.957427978515625 1.20166015625C3.38311767578125 1.20166015625 3.7191925048828125 1.5234375 3.7191925048828125 1.93115234375L3.7191925048828125 2.4462890625C3.7191925048828125 2.85400390625 3.38311767578125 3.17578125 2.957427978515625 3.17578125ZM2.083648681640625 1.609375C1.9044036865234375 1.609375 1.7475738525390625 1.759521484375 1.7475738525390625 1.93115234375L1.7475738525390625 2.4462890625C1.7475738525390625 2.617919921875 1.9044036865234375 2.76806640625 2.083648681640625 2.76806640625L2.957427978515625 2.76806640625C3.1366729736328125 2.76806640625 3.2935028076171875 2.617919921875 3.2935028076171875 2.4462890625L3.2935028076171875 1.93115234375C3.2935028076171875 1.759521484375 3.1366729736328125 1.609375 2.957427978515625 1.609375L2.083648681640625 1.609375Z"/>
    </g>
  </g>
</svg>