<svg xmlns="http://www.w3.org/2000/svg" width="93.745" height="57.933" viewBox="0 0 93.745 57.933">
  <g id="Group_179" data-name="Group 179" transform="translate(5.657 52.275) rotate(-90)">
    <path id="Path_1" data-name="Path 1" d="M0,0,23.309,23.309l6.8-6.8L46.618,0" transform="translate(0 60.779)" fill="none" stroke="#d63df4" stroke-linecap="round" stroke-linejoin="round" stroke-width="8"/>
    <path id="Path_2" data-name="Path 2" d="M0,0,23.309,23.309,46.618,0" transform="translate(0 30.39)" fill="none" stroke="#d63df4" stroke-linecap="round" stroke-linejoin="round" stroke-width="8"/>
    <path id="Path_3" data-name="Path 3" d="M0,0,23.309,23.309,46.618,0" transform="translate(0)" fill="none" stroke="#d63df4" stroke-linecap="round" stroke-linejoin="round" stroke-width="8"/>
  </g>
</svg>
