<svg xmlns="http://www.w3.org/2000/svg" xmlns:xlink="http://www.w3.org/1999/xlink" height="29.999999999999712" width="29.608938547486105">
  <g opacity="1">
    <g opacity="1">
      <path fill="rgb(104,136,155)" fill-opacity="0.38" opacity="1" fill-rule="evenodd" d="M0 14.999999999999853C0 6.7157283499999325 6.628186267225329 -3.552713678800501e-15 14.804469273743024 -3.552713678800501e-15C22.98075228026072 -3.552713678800501e-15 29.608938547486048 6.7157283499999325 29.608938547486048 14.999999999999853C29.608938547486048 23.284271649999774 22.98075228026072 29.99999999999971 14.804469273743024 29.99999999999971C6.628186267225329 29.99999999999971 0 23.284271649999774 0 14.999999999999853Z"/>
    </g>
    <g opacity="1">
      <path fill="rgb(255,255,255)" fill-opacity="1" opacity="1" fill-rule="evenodd" d="M14.805254888267882 6.999999999999545L14.802813482017882 6.999999999999545C12.660601567955382 7.0000076293940765 12.391436528892882 7.009515762328647 11.549517583580382 7.048334121703647C10.708941411705382 7.087333679198764 10.135210942955382 7.222169876098178 9.633135747642882 7.420003890990756C9.113848638267882 7.624340057372592 8.673296880455382 7.897676467895053 8.234454107017882 8.342514038085483C7.795245122642882 8.787185668944858 7.525469732017882 9.23352432250931 7.323077153892882 9.759529113769077C7.127398442955382 10.26836776733353 6.994097661705382 10.849872589110873 6.956255864830382 11.701217651366733C6.918658208580382 12.554557800292514 6.908770513267882 12.827392578124545 6.908770513267882 15.000083923339389C6.908770513267882 17.172771453856967 6.918291997642882 17.44461059570267 6.956500005455382 18.29795074462845C6.995074224205382 19.14962768554642 7.128252935142882 19.730964660644077 7.323321294517882 20.239639282226108C7.525103521080382 20.765808105468295 7.794878911705382 21.21214675903275 8.233965825767882 21.656818389892123C8.672686528892882 22.101821899413608 9.113238286705382 22.375827789306186 9.632159185142882 22.58016204833939C10.134478521080382 22.777999877929233 10.708453130455382 22.912834167480014 11.548907232017882 22.9518318176265C12.391070317955382 22.99066543579056 12.659991216392882 23.000167846679233 14.804278325767882 23.000167846679233C16.948809575767882 23.000167846679233 17.217120122642882 22.99066543579056 18.059283208580382 22.9518318176265C18.899859380455382 22.912834167480014 19.474322271080382 22.777999877929233 19.976641607017882 22.58016204833939C20.495806646080382 22.375827789306186 20.935625982017882 22.101821899413608 21.374346685142882 21.656818389892123C21.813555669517882 21.21214675903275 22.083331060142882 20.765808105468295 22.285723638267882 20.23980331420853C22.479815435142882 19.730964660644077 22.612994146080382 19.149459838866733 22.652544927330382 18.29811859130814C22.690386724205382 17.444774627685092 22.700152349205382 17.172771453856967 22.700152349205382 15.000083923339389C22.700152349205382 12.827392578124545 22.690386724205382 12.554725646972202 22.652544927330382 11.701381683349155C22.612994146080382 10.849708557128452 22.479815435142882 10.26836776733353 22.285723638267882 9.759695053100131C22.083331060142882 9.23352432250931 21.813555669517882 8.787185668944858 21.374346685142882 8.342514038085483C20.935137700767882 7.897508621215366 20.495928716392882 7.624172210692905 19.976153325767882 7.420003890990756C19.472735357017882 7.222169876098178 18.898760747642882 7.087333679198764 18.058184575767882 7.048334121703647C17.216265630455382 7.009515762328647 16.948077153892882 7.0000076293940765 14.805254888267882 6.999999999999545ZM14.097002935142882 8.441682815551303C14.234576177330382 8.441465377807162 14.382403325767882 8.44153213500931 14.542071294517882 8.441604614257358L14.805254888267882 8.441682815551303C16.913409185142882 8.441682815551303 17.163287114830382 8.449348449706577 17.995806646080382 8.487682342528842C18.765704107017882 8.523349761962436 19.183428716392882 8.653684616088412 19.461871099205382 8.763185501098178C19.830279302330382 8.908187866210483 20.092974614830382 9.081521987914584 20.369219732017882 9.361524581908725C20.645464849205382 9.641527175902866 20.816607427330382 9.908197402953647 20.960040044517882 10.281536102294467C21.068072271080382 10.563205718993686 21.196856450767882 10.98654174804642 21.232012700767882 11.766548156737827C21.269732427330382 12.60989379882767 21.278033208580382 12.863227844237827 21.278033208580382 14.998249053954623C21.278033208580382 17.13327026367142 21.269732427330382 17.386608123778842 21.232012700767882 18.22994995117142C21.196734380455382 19.009960174560092 21.068072271080382 19.433296203612827 20.960040044517882 19.714965820312045C20.816973638267882 20.088302612304233 20.645464849205382 20.354141235351108 20.369219732017882 20.63397598266556C20.092852544517882 20.9139785766597 19.830401372642882 21.087314605712436 19.461871099205382 21.232315063476108C19.183794927330382 21.34231567382767 18.765704107017882 21.472316741942905 17.995806646080382 21.5079841613765C17.163531255455382 21.546318054198764 16.913409185142882 21.554653167724155 14.805254888267882 21.554653167724155C12.696978521080382 21.554653167724155 12.447100591392882 21.546318054198764 11.614703130455382 21.5079841613765C10.844805669517882 21.471984863280795 10.427081060142882 21.34165191650345 10.148516607017882 21.23214721679642C9.780108403892882 21.08714675903275 9.516924810142882 20.913810729980014 9.240557622642882 20.633808135985873C8.964190435142882 20.353805541991733 8.793047857017882 20.087802886962436 8.649615239830382 19.71429824829056C8.541583013267882 19.432628631591342 8.412798833580382 19.009292602538608 8.377764653892882 18.2292861938472C8.339922857017882 17.385940551757358 8.332354497642882 17.1326065063472 8.332354497642882 14.996250152587436C8.332354497642882 12.85989379882767 8.339922857017882 12.607891082763217 8.377764653892882 11.764549255370639C8.412920903892882 10.984542846679233 8.541583013267882 10.561203002929233 8.649615239830382 10.279201507567905C8.792803716392882 9.905864715575717 8.964190435142882 9.639194488524936 9.240557622642882 9.359191894530795C9.516924810142882 9.079189300536655 9.780108403892882 8.90585327148392 10.148516607017882 8.760519027709506C10.426836919517882 8.650518417357944 10.844805669517882 8.520515441894077 11.614703130455382 8.484682083129428C12.343096685142882 8.451349258422397 12.625323247642882 8.44134902954056 14.097002935142882 8.439682006835483L14.097002935142882 8.441682815551303ZM18.072466802330382 10.72970581054642C18.072466802330382 10.199531555175327 18.496905278892882 9.77002906799271 19.019976567955382 9.77002906799271C19.543047857017882 9.769695281981967 19.967486333580382 10.199699401855014 19.967486333580382 10.72970581054642C19.967486333580382 11.259712219237827 19.543047857017882 11.689716339110873 19.019976567955382 11.689716339110873C18.496905278892882 11.689716339110873 18.072466802330382 11.259712219237827 18.072466802330382 10.72970581054642ZM14.805254888267882 10.891708374022983C12.565997075767882 10.891708374022983 10.750445317955382 12.731227874755405 10.750445317955382 15.000083923339389C10.750445317955382 17.268939971923373 12.565997075767882 19.10762786865189 14.805254888267882 19.10762786865189C17.044512700767882 19.10762786865189 18.859454107017882 17.268939971923373 18.859454107017882 15.000083923339389C18.859454107017882 12.731227874755405 17.044390630455382 10.891708374022983 14.805254888267882 10.891708374022983ZM17.437212896080382 15.000083923339389C17.437212896080382 13.527236938476108 16.258746099205382 12.333389282226108 14.805254888267882 12.333389282226108C13.351519536705382 12.333389282226108 12.173296880455382 13.527236938476108 12.173296880455382 15.000083923339389C12.173296880455382 16.47276687622025 13.351519536705382 17.66677856445267 14.805254888267882 17.66677856445267C16.258746099205382 17.66677856445267 17.437212896080382 16.47276687622025 17.437212896080382 15.000083923339389Z"/>
    </g>
  </g>
</svg>