<svg xmlns="http://www.w3.org/2000/svg" width="104" height="29" viewBox="0 0 104 29">
  <g id="Group_67" data-name="Group 67" transform="translate(-1176 -700)">
    <g id="Path_11" data-name="Path 11" transform="translate(1176 700)" fill="#fff">
      <path d="M 99 28.5 L 5 28.5 C 2.518693447113037 28.5 0.5 26.4813060760498 0.5 24 L 0.5 5 C 0.5 2.518693447113037 2.518693447113037 0.5 5 0.5 L 99 0.5 C 101.4813079833984 0.5 103.5 2.518693447113037 103.5 5 L 103.5 24 C 103.5 26.4813060760498 101.4813079833984 28.5 99 28.5 Z" stroke="none"/>
      <path d="M 5 1 C 2.794387817382813 1 1 2.79438591003418 1 5 L 1 24 C 1 26.20561408996582 2.794387817382813 28 5 28 L 99 28 C 101.2056121826172 28 103 26.20561408996582 103 24 L 103 5 C 103 2.79438591003418 101.2056121826172 1 99 1 L 5 1 M 5 0 L 99 0 C 101.7614135742188 0 104 2.238571166992188 104 5 L 104 24 C 104 26.76142883300781 101.7614135742188 29 99 29 L 5 29 C 2.238571166992188 29 0 26.76142883300781 0 24 L 0 5 C 0 2.238571166992188 2.238571166992188 0 5 0 Z" stroke="none" fill="#e91afc"/>
    </g>
    <text id="Premium" transform="translate(1189.698 719)" fill="#211b24" font-size="13" font-family="SegoeUI-Bold, Segoe UI" font-weight="700"><tspan x="0" y="0">Premium</tspan></text>
    <path id="Path_12" data-name="Path 12" d="M545.426,249.6l1.9,5a.383.383,0,0,0,.34.247L553,255.1a.383.383,0,0,1,.222.682l-4.172,3.348a.383.383,0,0,0-.13.4l1.407,5.161a.383.383,0,0,1-.58.422l-4.473-2.933a.383.383,0,0,0-.42,0l-4.473,2.933a.383.383,0,0,1-.58-.422l1.407-5.161a.384.384,0,0,0-.13-.4l-4.172-3.348a.383.383,0,0,1,.222-.682l5.343-.257a.383.383,0,0,0,.34-.247l1.9-5A.383.383,0,0,1,545.426,249.6Z" transform="translate(712.933 456.409)" fill="#d8c461"/>
  </g>
</svg>
