<?xml version="1.0" encoding="utf-8"?>
<!-- Generator: Adobe Illustrator 25.0.1, SVG Export Plug-In . SVG Version: 6.00 Build 0)  -->
<svg version="1.1" id="Capa_1" xmlns="http://www.w3.org/2000/svg" xmlns:xlink="http://www.w3.org/1999/xlink" x="0px" y="0px"
	 viewBox="0 0 616.8 166.5" style="enable-background:new 0 0 616.8 166.5;" xml:space="preserve">
<style type="text/css">
	.st0{fill-rule:evenodd;clip-rule:evenodd;fill:#FFFFFF;}
	.st1{fill-rule:evenodd;clip-rule:evenodd;fill:#674EA7;}
	.st2{opacity:0;fill-rule:evenodd;clip-rule:evenodd;}
	.st3{fill:none;}
	.st4{fill:#1E1E1E;}
	.st5{fill:url(#SVGID_1_);}
	.st6{opacity:0.65;fill:url(#SVGID_2_);enable-background:new    ;}
	.st7{opacity:0.8;fill:url(#SVGID_3_);enable-background:new    ;}
	.st8{opacity:0.65;}
	.st9{fill:url(#SVGID_4_);}
	.st10{fill:#FFFFFF;}
	.st11{font-family:'Montserrat-Regular';}
	.st12{font-size:34.6541px;}
	.st13{fill:url(#SVGID_5_);}
	.st14{opacity:0.65;fill:url(#SVGID_6_);enable-background:new    ;}
	.st15{opacity:0.8;fill:url(#SVGID_7_);enable-background:new    ;}
	.st16{fill:url(#SVGID_8_);}
	.st17{fill:url(#SVGID_9_);}
	.st18{opacity:0.65;fill:url(#SVGID_10_);enable-background:new    ;}
	.st19{opacity:0.8;fill:url(#SVGID_11_);enable-background:new    ;}
	.st20{fill:url(#SVGID_12_);}
	.st21{fill:url(#SVGID_13_);}
	.st22{opacity:0.65;fill:url(#SVGID_14_);enable-background:new    ;}
	.st23{opacity:0.8;fill:url(#SVGID_15_);enable-background:new    ;}
	.st24{fill:url(#SVGID_16_);}
</style>
<g>
	<text transform="matrix(1 0 0 1 231.6809 149.1065)"><tspan x="0" y="0" class="st10 st11 st12">T</tspan><tspan x="19.9" y="0" class="st10 st11 st12">h</tspan><tspan x="43.4" y="0" class="st10 st11 st12">e </tspan><tspan x="73.4" y="0" class="st10 st11 st12">P</tspan><tspan x="97.9" y="0" class="st10 st11 st12">ow</tspan><tspan x="149.1" y="0" class="st10 st11 st12">er of </tspan><tspan x="235.5" y="0" class="st10 st11 st12">P</tspan><tspan x="260" y="0" class="st10 st11 st12">eople</tspan></text>
	<path id="Trazado_1_1_" class="st10" d="M191.3,69.8c-0.1-16.1,12.8-29.4,29-29.5c0.2,0,0.3,0,0.5,0c8.2,0,15.8,2.8,21.1,8.4
		l-6.1,6.7c-4-4-9.4-6.2-15-6.1c-11.4,0-19.9,9-19.9,20.6s8.5,20.6,19.9,20.6c4.1,0.1,8.2-1,11.8-3.1V74h-15.8l4.1-9.1H242v27.1
		c-5.4,4.6-13.1,7.4-21.2,7.4c-16.1,0.1-29.4-12.8-29.5-29C191.3,70.2,191.3,70,191.3,69.8z"/>
	<path id="Trazado_2_1_" class="st10" d="M250,58.1h8.9v4c2.6-3.1,6.1-4.6,10.5-4.6c1,0,2,0.1,2.9,0.2v9.3c-1.5-0.4-3-0.6-4.5-0.6
		c-3.8,0-7.1,1.5-8.9,4.9v27.3H250V58.1z"/>
	<path id="Trazado_3_1_" class="st10" d="M274.5,78.4c-0.2-11.4,8.8-20.8,20.1-21c0.3,0,0.6,0,0.9,0c11.6,0,21,9.5,20.9,21
		c0,11.6-9.5,21-21,20.9C283.9,99.3,274.5,90,274.5,78.4L274.5,78.4z M307.4,78.4c0-7.1-5-12.4-11.9-12.4s-11.9,5.4-11.9,12.4
		s4.9,12.4,11.9,12.4S307.4,85.4,307.4,78.4z"/>
	<path id="Trazado_4_1_" class="st10" d="M350.8,95c-2.9,3.1-7.1,4.4-11.4,4.4c-10.1,0-16.5-7-16.5-17.5V58.1h8.9v23.6
		c0,5,4,9.1,9,9.1c0.1,0,0.2,0,0.3,0c4.5,0,8-2.3,9.7-6.9V58.1h8.9v40.6h-8.9V95z"/>
	<path id="Trazado_5_1_" class="st10" d="M369.4,58.1h8.9v3c3.1-2.4,6.9-3.7,10.9-3.7c12,0,20.9,9.1,20.9,21s-8.9,21-20.9,21
		c-3.9,0.1-7.8-1.2-10.9-3.6v17.8h-8.9L369.4,58.1z M378.4,71.5v13.8c2.4,3.5,6.5,5.6,10.8,5.5c6.9,0,11.8-5.4,11.8-12.4
		s-4.9-12.4-11.8-12.4C384.9,65.9,380.8,67.9,378.4,71.5z"/>
	<path id="Trazado_6_1_" class="st10" d="M418.2,41h20.4c10.5,0,17,7.2,17,15.8c0,5.2-2,8.8-5.4,11.2c5.8,2.3,9.5,7.9,9.3,14.1
		c0,10.1-8,16.6-19.2,16.6h-22.1V41z M437.4,65.3c5.8,0,8.7-3.4,8.7-7.8c0-4.2-2.9-7.8-8.7-7.8h-9.7v15.6L437.4,65.3z M440.3,89.9
		c6.5,0,9.7-3.5,9.7-8.2s-3.2-8.4-9.7-8.4h-12.6v16.6H440.3z"/>
	<path id="Trazado_7_1_" class="st10" d="M493,95c-2.8,3.1-7.1,4.4-11.4,4.4c-10.1,0-16.5-7-16.5-17.5V58.1h8.9v23.6
		c0,5,4,9.1,9,9.1c0.1,0,0.2,0,0.3,0c4.6,0,8-2.3,9.7-6.9V58.1h8.9v40.6H493L493,95z"/>
	<path id="Trazado_8_1_" class="st10" d="M522,96.6l-16-38.5h9.6l11.1,28l11.1-28h9.6l-23.3,55.6h-9.4L522,96.6z"/>
	<path id="Trazado_9_1_" class="st10" d="M547,78.4c0-11.9,8.9-21,20.8-21c11.3,0,18.8,8,19.4,21v2.4h-31c0.9,5.8,5.6,9.7,11.7,9.7
		c4,0,7.9-1.6,10.6-4.6l6,6.4c-4.2,4.6-10.3,7.2-16.6,7.1c-11.3,0.2-20.7-8.8-20.9-20.1C547,78.9,547,78.7,547,78.4z M556.5,73.9
		h20.9c-1.1-5.5-4.9-8.3-10.2-8.3C562.1,65.7,557.8,69.1,556.5,73.9z"/>
	<path id="Trazado_10_1_" class="st10" d="M594.5,58.1h8.9v4c2.6-3.1,6.1-4.6,10.5-4.6c1,0,2,0.1,2.9,0.2v9.3
		c-1.4-0.4-3-0.6-4.5-0.6c-3.8,0-7.2,1.5-8.9,4.9v27.3h-8.9V58.1z"/>
	<path id="Trazado_15_1_" class="st10" d="M607.3,51.5v-4.8h-1.8v-1h4.7v1h-1.8v4.8L607.3,51.5z M611,51.5v-5.8h1.8l1.1,4l1.1-4h1.8
		v5.8h-1.1v-4.7l-1.3,4.7h-1.1l-1.3-4.7v4.7H611z"/>
	<g>
		
			<linearGradient id="SVGID_1_" gradientUnits="userSpaceOnUse" x1="-1298.274" y1="1697.4067" x2="-1182.7089" y2="1821.4888" gradientTransform="matrix(0.6816 0.7317 0.7317 -0.6816 -357.085 2190.2222)">
			<stop  offset="0" style="stop-color:#FF00FF"/>
			<stop  offset="1" style="stop-color:#9E00F3"/>
		</linearGradient>
		<path class="st5" d="M120,153.1l29.1-75.3l19-49.2c4.2-10.7-1.1-22.8-11.8-27c-4.4-1.7-9.3-1.9-13.8-0.5L92.1,16.6L14.9,40.2
			C3.8,43.5-2.5,55.3,0.9,66.4c1.6,5.2,5.2,9.6,9.9,12.3l44.5,21.7c3.4,1.6,6.1,4.5,7.5,8l18.4,45.9c4.9,10.5,17.4,15.1,27.9,10.2
			C114.2,162.2,118.1,158.1,120,153.1L120,153.1z M97.2,110.3l-9.3-23.1c-1-2.1-2.3-4.1-3.9-5.9l0,0c-1.7-1.7-3.6-3.1-5.7-4.2
			l-22.4-11c-1.6-0.8-2.2-2.7-1.4-4.2c0.4-0.8,1.1-1.4,1.9-1.6l69.4-21.7c1.1-0.4,2.4,0,3.2,0.8c0.8,0.9,1,2.1,0.6,3.3L103,110.3
			c-0.6,1.6-2.5,2.4-4.1,1.8C98.1,111.8,97.5,111.1,97.2,110.3z"/>
		
			<linearGradient id="SVGID_2_" gradientUnits="userSpaceOnUse" x1="-1219.5231" y1="1740.8009" x2="-1224.1168" y2="1870.2189" gradientTransform="matrix(0.6816 0.7317 0.7317 -0.6816 -357.085 2190.2222)">
			<stop  offset="0" style="stop-color:#202B5C;stop-opacity:0.9"/>
			<stop  offset="0.28" style="stop-color:#202B5C;stop-opacity:0.53"/>
			<stop  offset="0.56" style="stop-color:#202B5C;stop-opacity:0.24"/>
			<stop  offset="0.81" style="stop-color:#202B5C;stop-opacity:6.000000e-02"/>
			<stop  offset="1" style="stop-color:#202B5C;stop-opacity:0"/>
		</linearGradient>
		<path class="st6" d="M97.2,110.3c0.7,1.6,2.5,2.4,4.1,1.7c0.8-0.3,1.5-1,1.8-1.8l26.6-67.7c15.5-39.1-2.7-36.5-5.5-35.9L142.6,1
			c11-3.4,22.7,2.7,26.1,13.6c1.4,4.5,1.2,9.4-0.5,13.8l-19,49.2l-20.4,52.7l0,0C116,163.1,97.8,112.3,97.2,110.3z"/>
		
			<linearGradient id="SVGID_3_" gradientUnits="userSpaceOnUse" x1="-1287.6461" y1="1731.0801" x2="-1163.632" y2="1735.4757" gradientTransform="matrix(0.6816 0.7317 0.7317 -0.6816 -357.085 2190.2222)">
			<stop  offset="0" style="stop-color:#202B5C;stop-opacity:0.9"/>
			<stop  offset="0.28" style="stop-color:#202B5C;stop-opacity:0.53"/>
			<stop  offset="0.56" style="stop-color:#202B5C;stop-opacity:0.24"/>
			<stop  offset="0.81" style="stop-color:#202B5C;stop-opacity:6.000000e-02"/>
			<stop  offset="1" style="stop-color:#202B5C;stop-opacity:0"/>
		</linearGradient>
		<path class="st7" d="M101.1,166.5c-8.4,0.3-16.2-4.5-19.8-12.2l-18.4-46c-1.4-3.5-4.1-6.4-7.5-8.1l-30.7-15l0,0
			C8.1,77.1,54,61,56,60.3c-1.6,0.6-2.5,2.4-1.9,4.1c0.3,0.8,0.9,1.4,1.7,1.8l22.4,10.9c2.1,1.1,3.9,2.6,5.5,4.3l0,0
			c1.6,1.7,2.9,3.7,3.9,5.9l9.4,23l0,0c0.7,2,18.9,52.6,31.6,20.2l-8.7,22.4C117.1,160.9,109.6,166.3,101.1,166.5z"/>
		<g class="st8">
			
				<linearGradient id="SVGID_4_" gradientUnits="userSpaceOnUse" x1="-1283.2699" y1="1844.6332" x2="-1278.4457" y2="1708.2231" gradientTransform="matrix(0.6816 0.7317 0.7317 -0.6816 -357.085 2190.2222)">
				<stop  offset="0" style="stop-color:#202B5C;stop-opacity:0.9"/>
				<stop  offset="1" style="stop-color:#202B5C;stop-opacity:0"/>
			</linearGradient>
			<path class="st9" d="M129.5,42.6c0.4-1.1,0.2-2.4-0.6-3.3c-0.8-0.9-2.1-1.2-3.2-0.8L56.3,60.2h-0.2l0,0c-2,0.7-47.9,16.7-31.4,25
				L11,78.6C0.8,72.9-2.9,60.2,2.7,50c2.6-4.8,7-8.3,12.3-9.9l77.1-23.5l31.6-9.8h0.2h0.2C126.9,6.1,145,3.4,129.5,42.6z"/>
		</g>
	</g>
</g>
</svg>
