<svg xmlns="http://www.w3.org/2000/svg" width="93.746" height="57.932" viewBox="0 0 93.746 57.932">
  <g id="Group_112" data-name="Group 112" transform="translate(-987.85 1001.804) rotate(-90)">
    <path id="Path_1" data-name="Path 1" d="M-47.628-265.493l23.309,23.309,6.8-6.8L-1.01-265.493" transform="translate(997.157 1319.78)" fill="none" stroke="#fff" stroke-linecap="round" stroke-linejoin="round" stroke-width="8"/>
    <path id="Path_2" data-name="Path 2" d="M-47.628-265.493l23.309,23.309L-1.01-265.493" transform="translate(997.157 1289.39)" fill="none" stroke="#fff" stroke-linecap="round" stroke-linejoin="round" stroke-width="8"/>
    <path id="Path_3" data-name="Path 3" d="M-47.628-265.493l23.309,23.309L-1.01-265.493" transform="translate(997.157 1259)" fill="none" stroke="#fff" stroke-linecap="round" stroke-linejoin="round" stroke-width="8"/>
  </g>
</svg>
